{
	"id": "15854dae-adcd-4299-848b-3b0cef7b99bc",
	"name": "User-Service",
	"values": [
		{
			"key": "protocol",
			"value": "http",
			"enabled": true
		},
		{
			"key": "URL",
			"value": "192.168.56.107",
			"enabled": true
		},
		{
			"key": "port",
			"value": "8080",
			"enabled": true
		},
		{
			"key": "domain-service",
			"value": "user-service",
			"enabled": true
		},
		{
			"key": "userid",
			"value": "1",
			"enabled": true
		}
	],
	"_postman_variable_scope": "environment",
	"_postman_exported_at": "2021-10-06T12:52:48.854Z",
	"_postman_exported_using": "Postman/7.36.6"
}